      date          water_level         total_volume    volume_change_cum      evaporation_cum    precipitation_cum      tributaries_cum            gw_in_cum           gw_out_cum  trib_mytribname_cum    balance_error_cum    balance_check_cum
31.01.1998               195.38           2762687.66             45977.44            -12253.04              3824.92                 0.00             54405.56                 0.00                 0.00                 0.00                 0.00
28.02.1998               195.70           2801179.12             84468.89            -24805.20              4066.10                 0.00            105207.98                 0.00                 0.00                 0.00                -0.00
31.03.1998               196.04           2842309.22            125599.00            -40376.20              4520.46                 0.00            161454.74                 0.00                 0.00                 0.00                 0.00
30.04.1998               196.44           2890940.89            174230.67            -50497.97              8841.14                 0.00            215887.50                 0.00                 0.00                 0.00                 0.00
31.05.1998               196.85           2941298.77            224588.55            -59884.79             12339.13                 0.00            272134.21                 0.00                 0.00                 0.00                 0.00
30.06.1998               197.24           2991570.75            274860.53            -68314.81             16608.90                 0.00            326566.44                 0.00                 0.00                 0.00                -0.00
31.07.1998               197.73           3053760.24            337050.02            -76103.44             30339.92                 0.00            382813.54                 0.00                 0.00                 0.00                -0.00
31.08.1998               198.29           3127365.76            410655.54            -84306.83             55905.14                 0.00            439057.23                 0.00                 0.00                 0.00                -0.00
30.09.1998               198.70           3180861.17            464150.94            -93823.29             64484.04                 0.00            493490.19                 0.00                 0.00                 0.00                 0.00
31.10.1998               198.92           3209445.79            492735.56           -105872.89             68999.98                 0.00            529608.47                 0.00                 0.00                 0.00                -0.00
30.11.1998               198.84           3199818.73            483108.50           -120486.72             71394.76                 0.00            532200.46                 0.00                 0.00                 0.00                 0.00
31.12.1998               198.73           3185226.53            468516.31           -137917.36             71554.81                 0.00            534878.85                 0.00                 0.00                 0.00                 0.00
31.01.1999               198.62           3170177.58            453467.35           -155665.79             71575.91                 0.00            537557.24                 0.00                 0.00                 0.00                 0.00
28.02.1999               198.51           3155714.80            439004.57           -172806.87             71835.01                 0.00            539976.43                 0.00                 0.00                 0.00                -0.00
31.03.1999               198.40           3141311.19            424600.96           -190132.07             72078.14                 0.00            542654.89                 0.00                 0.00                 0.00                 0.00
30.04.1999               198.37           3137936.09            421225.87           -201245.02             77224.03                 0.00            545246.86                 0.00                 0.00                 0.00                -0.00
31.05.1999               198.39           3140729.43            424019.21           -211229.40             87323.30                 0.00            547925.31                 0.00                 0.00                 0.00                 0.00
30.06.1999               198.44           3146209.76            429499.54           -221130.61            100112.86                 0.00            550517.29                 0.00                 0.00                 0.00                 0.00
31.07.1999               198.61           3169468.08            452757.86           -229544.05            129106.19                 0.00            553195.72                 0.00                 0.00                 0.00                -0.00
31.08.1999               198.74           3185827.23            469117.01           -237756.21            150999.06                 0.00            555874.16                 0.00                 0.00                 0.00                -0.00
30.09.1999               198.80           3193636.17            476925.94           -245910.78            164370.62                 0.00            558466.10                 0.00                 0.00                 0.00                -0.00
31.10.1999               198.79           3193277.98            476567.76           -256756.90            172180.13                 0.00            561144.53                 0.00                 0.00                 0.00                -0.00
30.11.1999               198.71           3181898.22            465187.99           -270725.76            172177.29                 0.00            563736.47                 0.00                 0.00                 0.00                 0.00
31.12.1999               198.62           3169948.75            453238.53           -285549.11            172372.77                 0.00            566414.86                 0.00                 0.00                 0.00                 0.00
31.01.2000               198.50           3154037.25            437327.03           -304138.99            172372.77                 0.00            569093.25                 0.00                 0.00                 0.00                 0.00
29.02.2000               198.38           3138246.14            421535.91           -322469.12            172406.19                 0.00            571598.85                 0.00                 0.00                 0.00                 0.00
31.03.2000               198.27           3123790.38            407080.15           -339592.11            172395.00                 0.00            574277.27                 0.00                 0.00                 0.00                 0.00
30.04.2000               198.34           3133751.39            417041.17           -350644.06            190815.96                 0.00            576869.27                 0.00                 0.00                 0.00                -0.00
31.05.2000               198.32           3131475.06            414764.84           -359905.11            195122.25                 0.00            579547.70                 0.00                 0.00                 0.00                 0.00
30.06.2000               198.29           3127023.96            410313.73           -369440.30            197614.28                 0.00            582139.75                 0.00                 0.00                 0.00                 0.00
31.07.2000               198.38           3138526.79            421816.57           -377610.71            214609.08                 0.00            584818.21                 0.00                 0.00                 0.00                -0.00
31.08.2000               198.34           3134168.94            417458.71           -386561.35            216523.43                 0.00            587496.62                 0.00                 0.00                 0.00                 0.00
30.09.2000               198.37           3137797.99            421087.77           -395020.45            226019.68                 0.00            590088.54                 0.00                 0.00                 0.00                -0.00
31.10.2000               198.35           3134380.36            417670.13           -405396.64            230299.85                 0.00            592766.91                 0.00                 0.00                 0.00                 0.00
30.11.2000               198.28           3125813.62            409103.39           -416654.14            230398.65                 0.00            595358.88                 0.00                 0.00                 0.00                -0.00
31.12.2000               198.20           3115606.78            398896.56           -429911.53            230770.84                 0.00            598037.25                 0.00                 0.00                 0.00                 0.00
31.01.2001               198.08           3099794.35            383084.13           -448402.77            230771.26                 0.00            600715.64                 0.00                 0.00                 0.00                 0.00
28.02.2001               197.97           3085389.46            368679.24           -465312.13            230856.50                 0.00            603134.87                 0.00                 0.00                 0.00                 0.00
31.03.2001               197.87           3072364.38            355654.16           -481008.70            230849.59                 0.00            605813.27                 0.00                 0.00                 0.00                -0.00
30.04.2001               197.79           3061313.00            344602.77           -494703.00            230900.49                 0.00            608405.28                 0.00                 0.00                 0.00                 0.00
31.05.2001               197.80           3063583.14            346872.92           -506618.55            242407.74                 0.00            611083.73                 0.00                 0.00                 0.00                 0.00
30.06.2001               198.01           3090525.25            373815.02           -514900.31            275039.49                 0.00            613675.84                 0.00                 0.00                 0.00                 0.00
31.07.2001               198.10           3102348.61            385638.39           -523199.62            292483.78                 0.00            616354.22                 0.00                 0.00                 0.00                 0.00
31.08.2001               198.18           3112258.40            395548.18           -531341.17            307856.77                 0.00            619032.58                 0.00                 0.00                 0.00                 0.00
30.09.2001               198.27           3124038.14            407327.92           -540048.83            325752.04                 0.00            621624.71                 0.00                 0.00                 0.00                 0.00
31.10.2001               198.22           3117925.62            401215.40           -550284.03            327196.53                 0.00            624302.90                 0.00                 0.00                 0.00                 0.00
30.11.2001               198.18           3112888.29            396178.07           -563100.05            332383.24                 0.00            626894.88                 0.00                 0.00                 0.00                 0.00
31.12.2001               198.08           3099617.77            382907.54           -579656.24            332990.53                 0.00            629573.26                 0.00                 0.00                 0.00                 0.00
31.01.2002               197.96           3083642.80            366932.58           -598492.03            333172.94                 0.00            632251.66                 0.00                 0.00                 0.01                 0.00
28.02.2002               197.86           3071178.83            354468.61           -614660.58            334458.34                 0.00            634670.85                 0.00                 0.00                 0.01                 0.00
31.03.2002               197.77           3058521.56            341811.33           -632137.70            336599.77                 0.00            637349.26                 0.00                 0.00                 0.01                 0.00
30.04.2002               197.74           3055093.89            338383.67           -644433.54            342875.92                 0.00            639941.29                 0.00                 0.00                 0.01                 0.00
31.05.2002               197.72           3053226.31            336516.09           -655895.58            349791.95                 0.00            642619.72                 0.00                 0.00                 0.01                 0.00
30.06.2002               197.82           3065366.71            348656.48           -665352.39            368797.10                 0.00            645211.77                 0.00                 0.00                 0.01                 0.00
31.07.2002               197.93           3079066.15            362355.93           -673371.24            387837.01                 0.00            647890.16                 0.00                 0.00                 0.01                 0.00
31.08.2002               197.98           3086529.71            369819.49           -681991.30            401242.18                 0.00            650568.62                 0.00                 0.00                 0.01                 0.00
30.09.2002               198.05           3095762.91            379052.69           -690988.88            416880.98                 0.00            653160.59                 0.00                 0.00                 0.01                 0.00
31.10.2002               198.05           3094778.26            378068.03           -700981.85            423210.96                 0.00            655838.93                 0.00                 0.00                 0.01                 0.00
30.11.2002               197.99           3087397.21            370686.99           -714104.61            426360.74                 0.00            658430.87                 0.00                 0.00                 0.01                 0.00
31.12.2002               197.88           3073815.96            357105.74           -731593.20            427589.67                 0.00            661109.27                 0.00                 0.00                 0.01                 0.00
31.01.2003               197.76           3058232.94            341522.71           -750033.58            427768.63                 0.00            663787.67                 0.00                 0.00                 0.01                 0.00
28.02.2003               197.67           3045826.37            329116.15           -766152.04            429061.34                 0.00            666206.86                 0.00                 0.00                 0.01                 0.00
31.03.2003               197.57           3033148.61            316438.38           -783593.54            431146.66                 0.00            668885.26                 0.00                 0.00                 0.01                 0.00
30.04.2003               197.54           3029748.71            313038.48           -795837.83            437399.01                 0.00            671477.30                 0.00                 0.00                 0.01                 0.00
31.05.2003               197.53           3028047.26            311337.03           -807246.62            444427.93                 0.00            674155.72                 0.00                 0.00                 0.01                 0.00
30.06.2003               197.62           3040238.17            323527.94           -816648.41            463428.56                 0.00            676747.79                 0.00                 0.00                 0.01                 0.00
31.07.2003               197.73           3053995.40            337285.18           -824550.04            482409.02                 0.00            679426.20                 0.00                 0.00                 0.01                 0.00
31.08.2003               197.79           3061609.37            344899.15           -833038.71            495833.20                 0.00            682104.65                 0.00                 0.00                 0.01                 0.00
30.09.2003               197.86           3070556.86            353846.63           -841918.28            511068.30                 0.00            684696.61                 0.00                 0.00                 0.01                 0.00
31.10.2003               197.85           3069469.08            352758.86           -851837.02            517220.74                 0.00            687375.14                 0.00                 0.00                 0.01                 0.00
30.11.2003               197.79           3062032.28            345322.06           -864918.91            520274.10                 0.00            689966.87                 0.00                 0.00                 0.01                 0.00
31.12.2003               197.69           3049410.00            332699.77           -881017.06            521071.56                 0.00            692645.27                 0.00                 0.00                 0.01                 0.00
31.01.2004               197.61           3038522.29            321812.07           -898669.20            525157.63                 0.00            695323.64                 0.00                 0.00                 0.01                 0.00
29.02.2004               197.50           3023900.06            307189.83           -916002.05            525362.63                 0.00            697829.26                 0.00                 0.00                 0.01                 0.00
31.03.2004               197.39           3010527.01            293816.79           -932333.40            525642.51                 0.00            700507.68                 0.00                 0.00                 0.01                 0.00
30.04.2004               197.35           3005310.49            288600.26           -943531.39            529031.98                 0.00            703099.68                 0.00                 0.00                 0.01                 0.00
31.05.2004               197.38           3008491.47            291781.24           -954658.51            540661.63                 0.00            705778.12                 0.00                 0.00                 0.01                 0.00
30.06.2004               197.51           3025789.11            309078.88           -963266.64            563975.37                 0.00            708370.15                 0.00                 0.00                 0.01                 0.00
31.07.2004               197.56           3031576.25            314866.02           -971787.49            575604.91                 0.00            711048.60                 0.00                 0.00                 0.01                 0.00
31.08.2004               197.64           3041831.39            325121.16           -980474.88            591868.93                 0.00            713727.12                 0.00                 0.00                 0.01                 0.00
30.09.2004               197.61           3038726.10            322015.88           -988841.10            594537.78                 0.00            716319.20                 0.00                 0.00                 0.01                 0.00
31.10.2004               197.59           3035892.55            319182.32           -999747.93            599932.93                 0.00            718997.32                 0.00                 0.00                 0.01                 0.00
30.11.2004               197.56           3032628.31            315918.09          -1011589.26            605918.05                 0.00            721589.30                 0.00                 0.00                 0.01                 0.00
31.12.2004               197.47           3020322.01            303611.78          -1027449.34            606793.47                 0.00            724267.66                 0.00                 0.00                 0.01                 0.00
31.01.2005               197.35           3005488.73            288778.50          -1044961.02            606793.47                 0.00            726946.05                 0.00                 0.00                 0.01                 0.00
28.02.2005               197.26           2993233.51            276523.29          -1060352.98            607511.01                 0.00            729365.26                 0.00                 0.00                 0.01                 0.00
31.03.2005               197.18           2983471.18            266760.96          -1076692.55            611409.85                 0.00            732043.66                 0.00                 0.00                 0.01                 0.00
30.04.2005               197.20           2986140.43            269430.20          -1088179.83            622974.33                 0.00            734635.70                 0.00                 0.00                 0.01                 0.00
31.05.2005               197.36           3006724.44            290014.22          -1097597.06            650297.18                 0.00            737314.10                 0.00                 0.00                 0.01                 0.00
30.06.2005               197.44           3016509.54            299799.32          -1107280.53            667173.65                 0.00            739906.20                 0.00                 0.00                 0.01                 0.00
31.07.2005               197.45           3017785.07            301074.85          -1115777.83            674268.10                 0.00            742584.57                 0.00                 0.00                 0.01                 0.00
31.08.2005               197.51           3026074.67            309364.45          -1124374.15            688475.51                 0.00            745263.09                 0.00                 0.00                 0.01                 0.00
30.09.2005               197.59           3035655.65            318945.43          -1133260.34            704350.74                 0.00            747855.03                 0.00                 0.00                 0.01                 0.00
31.10.2005               197.62           3039999.39            323289.17          -1142225.25            714981.03                 0.00            750533.40                 0.00                 0.00                 0.01                 0.00
30.11.2005               197.60           3036683.14            319972.91          -1153951.43            720799.05                 0.00            753125.30                 0.00                 0.00                 0.01                 0.00
31.12.2005               197.53           3028499.19            311788.96          -1166466.48            722451.76                 0.00            755803.69                 0.00                 0.00                 0.01                 0.00
31.01.2006               197.46           3019562.63            302852.41          -1182200.32            726570.63                 0.00            758482.09                 0.00                 0.00                 0.01                 0.00
28.02.2006               197.37           3008138.68            291428.46          -1196299.35            726826.56                 0.00            760901.26                 0.00                 0.00                 0.01                 0.00
31.03.2006               197.27           2994597.88            277887.66          -1213012.09            727320.07                 0.00            763579.68                 0.00                 0.00                 0.01                 0.00
30.04.2006               197.23           2990327.85            273617.63          -1224371.59            731817.49                 0.00            766171.73                 0.00                 0.00                 0.01                 0.00
31.05.2006               197.20           2986424.06            269713.84          -1234567.85            735431.52                 0.00            768850.18                 0.00                 0.00                 0.01                 0.00
30.06.2006               197.19           2984195.50            267485.27          -1243663.12            739706.18                 0.00            771442.21                 0.00                 0.00                 0.01                 0.00
31.07.2006               197.25           2992321.15            275610.93          -1251937.00            753427.25                 0.00            774120.67                 0.00                 0.00                 0.01                 0.00
31.08.2006               197.40           3012035.85            295325.63          -1260113.09            778639.87                 0.00            776798.85                 0.00                 0.00                 0.01                 0.00
30.09.2006               197.42           3013684.00            296973.78          -1269432.37            787015.24                 0.00            779390.91                 0.00                 0.00                 0.01                 0.00
31.10.2006               197.38           3009483.18            292772.95          -1280693.26            791396.92                 0.00            782069.29                 0.00                 0.00                 0.01                 0.00
30.11.2006               197.31           3000513.27            283803.05          -1294572.27            793714.04                 0.00            784661.28                 0.00                 0.00                 0.01                 0.00
31.12.2006               197.21           2986891.84            270181.61          -1311028.02            793869.96                 0.00            787339.67                 0.00                 0.00                 0.01                 0.00
31.01.2007               197.10           2972970.29            256260.07          -1327647.30            793889.32                 0.00            790018.04                 0.00                 0.00                 0.01                 0.00
28.02.2007               196.99           2959453.37            242743.14          -1343826.18            794132.08                 0.00            792437.24                 0.00                 0.00                 0.01                 0.00
31.03.2007               196.88           2945864.84            229154.62          -1360367.22            794406.13                 0.00            795115.71                 0.00                 0.00                 0.01                 0.00
30.04.2007               196.85           2942078.73            225368.50          -1371549.90            799210.71                 0.00            797707.69                 0.00                 0.00                 0.01                 0.00
31.05.2007               196.87           2944615.34            227905.11          -1381196.49            808715.46                 0.00            800386.15                 0.00                 0.00                 0.01                 0.00
30.06.2007               196.91           2949600.30            232890.08          -1390714.28            820626.21                 0.00            802978.14                 0.00                 0.00                 0.01                 0.00
31.07.2007               197.09           2971825.90            255115.68          -1398711.84            848170.91                 0.00            805656.61                 0.00                 0.00                 0.01                 0.00
31.08.2007               197.22           2987992.47            271282.25          -1406598.04            869545.20                 0.00            808335.09                 0.00                 0.00                 0.01                 0.00
30.09.2007               197.28           2995830.10            279119.88          -1414273.66            882466.60                 0.00            810926.94                 0.00                 0.00                 0.01                 0.00
31.10.2007               197.28           2996091.66            279381.43          -1424244.21            890020.26                 0.00            813605.39                 0.00                 0.00                 0.01                 0.00
30.11.2007               197.20           2985622.11            268911.89          -1437307.54            890022.15                 0.00            816197.28                 0.00                 0.00                 0.01                 0.00
31.12.2007               197.11           2974407.45            257697.23          -1451312.79            890134.34                 0.00            818875.68                 0.00                 0.00                 0.01                 0.00
