      date                           lake    tributaries_trib_mytribname                     atmosphere                  balance_error
31.01.1998                     0.00045976                     0.00000000                     0.00000000                     0.00045976
28.02.1998                     0.00038493                     0.00000000                     0.00000000                     0.00038493
31.03.1998                     0.00041131                     0.00000000                     0.00000000                     0.00041131
30.04.1998                     0.00048631                     0.00000000                     0.00000000                     0.00048631
31.05.1998                     0.00050356                     0.00000000                     0.00000000                     0.00050356
30.06.1998                     0.00050275                     0.00000000                     0.00000000                     0.00050275
31.07.1998                     0.00062189                     0.00000000                     0.00000000                     0.00062189
31.08.1998                     0.00073602                     0.00000000                     0.00000000                     0.00073602
30.09.1998                     0.00053499                     0.00000000                     0.00000000                     0.00053499
31.10.1998                     0.00028584                     0.00000000                     0.00000000                     0.00028584
30.11.1998                    -0.00009626                     0.00000000                     0.00000000                    -0.00009626
31.12.1998                    -0.00014592                     0.00000000                     0.00000000                    -0.00014592
31.01.1999                    -0.00015049                     0.00000000                     0.00000000                    -0.00015049
28.02.1999                    -0.00014463                     0.00000000                     0.00000000                    -0.00014463
31.03.1999                    -0.00014403                     0.00000000                     0.00000000                    -0.00014403
30.04.1999                    -0.00003376                     0.00000000                     0.00000000                    -0.00003376
31.05.1999                     0.00002794                     0.00000000                     0.00000000                     0.00002794
30.06.1999                     0.00005480                     0.00000000                     0.00000000                     0.00005480
31.07.1999                     0.00023257                     0.00000000                     0.00000000                     0.00023257
31.08.1999                     0.00016360                     0.00000000                     0.00000000                     0.00016360
30.09.1999                     0.00007809                     0.00000000                     0.00000000                     0.00007809
31.10.1999                    -0.00000358                     0.00000000                     0.00000000                    -0.00000358
30.11.1999                    -0.00011380                     0.00000000                     0.00000000                    -0.00011380
31.12.1999                    -0.00011949                     0.00000000                     0.00000000                    -0.00011949
31.01.2000                    -0.00015911                     0.00000000                     0.00000000                    -0.00015911
29.02.2000                    -0.00015791                     0.00000000                     0.00000000                    -0.00015791
31.03.2000                    -0.00014456                     0.00000000                     0.00000000                    -0.00014456
30.04.2000                     0.00009960                     0.00000000                     0.00000000                     0.00009960
31.05.2000                    -0.00002275                     0.00000000                     0.00000000                    -0.00002275
30.06.2000                    -0.00004451                     0.00000000                     0.00000000                    -0.00004451
31.07.2000                     0.00011503                     0.00000000                     0.00000000                     0.00011503
31.08.2000                    -0.00004358                     0.00000000                     0.00000000                    -0.00004358
30.09.2000                     0.00003629                     0.00000000                     0.00000000                     0.00003629
31.10.2000                    -0.00003418                     0.00000000                     0.00000000                    -0.00003418
30.11.2000                    -0.00008567                     0.00000000                     0.00000000                    -0.00008567
31.12.2000                    -0.00010207                     0.00000000                     0.00000000                    -0.00010207
31.01.2001                    -0.00015812                     0.00000000                     0.00000000                    -0.00015812
28.02.2001                    -0.00014405                     0.00000000                     0.00000000                    -0.00014405
31.03.2001                    -0.00013025                     0.00000000                     0.00000000                    -0.00013025
30.04.2001                    -0.00011051                     0.00000000                     0.00000000                    -0.00011051
31.05.2001                     0.00002270                     0.00000000                     0.00000000                     0.00002270
30.06.2001                     0.00026942                     0.00000000                     0.00000000                     0.00026942
31.07.2001                     0.00011823                     0.00000000                     0.00000000                     0.00011823
31.08.2001                     0.00009910                     0.00000000                     0.00000000                     0.00009910
30.09.2001                     0.00011780                     0.00000000                     0.00000000                     0.00011780
31.10.2001                    -0.00006112                     0.00000000                     0.00000000                    -0.00006112
30.11.2001                    -0.00005038                     0.00000000                     0.00000000                    -0.00005038
31.12.2001                    -0.00013270                     0.00000000                     0.00000000                    -0.00013270
31.01.2002                    -0.00015975                     0.00000000                     0.00000000                    -0.00015975
28.02.2002                    -0.00012464                     0.00000000                     0.00000000                    -0.00012464
31.03.2002                    -0.00012657                     0.00000000                     0.00000000                    -0.00012657
30.04.2002                    -0.00003428                     0.00000000                     0.00000000                    -0.00003428
31.05.2002                    -0.00001868                     0.00000000                     0.00000000                    -0.00001868
30.06.2002                     0.00012140                     0.00000000                     0.00000000                     0.00012140
31.07.2002                     0.00013698                     0.00000000                     0.00000000                     0.00013698
31.08.2002                     0.00007465                     0.00000000                     0.00000000                     0.00007465
30.09.2002                     0.00009233                     0.00000000                     0.00000000                     0.00009233
31.10.2002                    -0.00000984                     0.00000000                     0.00000000                    -0.00000984
30.11.2002                    -0.00007381                     0.00000000                     0.00000000                    -0.00007381
31.12.2002                    -0.00013581                     0.00000000                     0.00000000                    -0.00013581
31.01.2003                    -0.00015583                     0.00000000                     0.00000000                    -0.00015583
28.02.2003                    -0.00012407                     0.00000000                     0.00000000                    -0.00012407
31.03.2003                    -0.00012678                     0.00000000                     0.00000000                    -0.00012678
30.04.2003                    -0.00003400                     0.00000000                     0.00000000                    -0.00003400
31.05.2003                    -0.00001702                     0.00000000                     0.00000000                    -0.00001702
30.06.2003                     0.00012191                     0.00000000                     0.00000000                     0.00012191
31.07.2003                     0.00013756                     0.00000000                     0.00000000                     0.00013756
31.08.2003                     0.00007616                     0.00000000                     0.00000000                     0.00007616
30.09.2003                     0.00008946                     0.00000000                     0.00000000                     0.00008946
31.10.2003                    -0.00001086                     0.00000000                     0.00000000                    -0.00001086
30.11.2003                    -0.00007437                     0.00000000                     0.00000000                    -0.00007437
31.12.2003                    -0.00012622                     0.00000000                     0.00000000                    -0.00012622
31.01.2004                    -0.00010887                     0.00000000                     0.00000000                    -0.00010887
29.02.2004                    -0.00014623                     0.00000000                     0.00000000                    -0.00014623
31.03.2004                    -0.00013373                     0.00000000                     0.00000000                    -0.00013373
30.04.2004                    -0.00005217                     0.00000000                     0.00000000                    -0.00005217
31.05.2004                     0.00003172                     0.00000000                     0.00000000                     0.00003172
30.06.2004                     0.00017307                     0.00000000                     0.00000000                     0.00017307
31.07.2004                     0.00005787                     0.00000000                     0.00000000                     0.00005787
31.08.2004                     0.00010255                     0.00000000                     0.00000000                     0.00010255
30.09.2004                    -0.00003105                     0.00000000                     0.00000000                    -0.00003105
31.10.2004                    -0.00002834                     0.00000000                     0.00000000                    -0.00002834
30.11.2004                    -0.00003264                     0.00000000                     0.00000000                    -0.00003264
31.12.2004                    -0.00012306                     0.00000000                     0.00000000                    -0.00012306
31.01.2005                    -0.00014833                     0.00000000                     0.00000000                    -0.00014833
28.02.2005                    -0.00012255                     0.00000000                     0.00000000                    -0.00012255
31.03.2005                    -0.00009767                     0.00000000                     0.00000000                    -0.00009767
30.04.2005                     0.00002674                     0.00000000                     0.00000000                     0.00002674
31.05.2005                     0.00020584                     0.00000000                     0.00000000                     0.00020584
30.06.2005                     0.00009784                     0.00000000                     0.00000000                     0.00009784
31.07.2005                     0.00001278                     0.00000000                     0.00000000                     0.00001278
31.08.2005                     0.00008290                     0.00000000                     0.00000000                     0.00008290
30.09.2005                     0.00009581                     0.00000000                     0.00000000                     0.00009581
31.10.2005                     0.00004344                     0.00000000                     0.00000000                     0.00004344
30.11.2005                    -0.00003317                     0.00000000                     0.00000000                    -0.00003317
31.12.2005                    -0.00008183                     0.00000000                     0.00000000                    -0.00008183
31.01.2006                    -0.00008937                     0.00000000                     0.00000000                    -0.00008937
28.02.2006                    -0.00011424                     0.00000000                     0.00000000                    -0.00011424
31.03.2006                    -0.00013541                     0.00000000                     0.00000000                    -0.00013541
30.04.2006                    -0.00004270                     0.00000000                     0.00000000                    -0.00004270
31.05.2006                    -0.00003904                     0.00000000                     0.00000000                    -0.00003904
30.06.2006                    -0.00002229                     0.00000000                     0.00000000                    -0.00002229
31.07.2006                     0.00008126                     0.00000000                     0.00000000                     0.00008126
31.08.2006                     0.00019711                     0.00000000                     0.00000000                     0.00019711
30.09.2006                     0.00001652                     0.00000000                     0.00000000                     0.00001652
31.10.2006                    -0.00004201                     0.00000000                     0.00000000                    -0.00004201
30.11.2006                    -0.00008970                     0.00000000                     0.00000000                    -0.00008970
31.12.2006                    -0.00013621                     0.00000000                     0.00000000                    -0.00013621
31.01.2007                    -0.00013921                     0.00000000                     0.00000000                    -0.00013921
28.02.2007                    -0.00013517                     0.00000000                     0.00000000                    -0.00013517
31.03.2007                    -0.00013588                     0.00000000                     0.00000000                    -0.00013588
30.04.2007                    -0.00003787                     0.00000000                     0.00000000                    -0.00003787
31.05.2007                     0.00002537                     0.00000000                     0.00000000                     0.00002537
30.06.2007                     0.00004985                     0.00000000                     0.00000000                     0.00004985
31.07.2007                     0.00022224                     0.00000000                     0.00000000                     0.00022224
31.08.2007                     0.00016168                     0.00000000                     0.00000000                     0.00016168
30.09.2007                     0.00007838                     0.00000000                     0.00000000                     0.00007838
31.10.2007                     0.00000262                     0.00000000                     0.00000000                     0.00000262
30.11.2007                    -0.00010469                     0.00000000                     0.00000000                    -0.00010469
31.12.2007                    -0.00011215                     0.00000000                     0.00000000                    -0.00011215
