      date                       cum_lake cum_tributaries_trib_mytribname                 cum_atmosphere              cum_balance_error
31.01.1998                     2.76268575                     0.00000000                     0.00000000                     0.04597553
28.02.1998                     2.80117828                     0.00000000                     0.00000000                     0.08446806
31.03.1998                     2.84230885                     0.00000000                     0.00000000                     0.12559863
30.04.1998                     2.89093988                     0.00000000                     0.00000000                     0.17422966
31.05.1998                     2.94129583                     0.00000000                     0.00000000                     0.22458561
30.06.1998                     2.99157047                     0.00000000                     0.00000000                     0.27486025
31.07.1998                     3.05375926                     0.00000000                     0.00000000                     0.33704904
31.08.1998                     3.12736165                     0.00000000                     0.00000000                     0.41065143
30.09.1998                     3.18086077                     0.00000000                     0.00000000                     0.46415054
31.10.1998                     3.20944519                     0.00000000                     0.00000000                     0.49273497
30.11.1998                     3.19981904                     0.00000000                     0.00000000                     0.48310882
31.12.1998                     3.18522705                     0.00000000                     0.00000000                     0.46851683
31.01.1999                     3.17017767                     0.00000000                     0.00000000                     0.45346745
28.02.1999                     3.15571484                     0.00000000                     0.00000000                     0.43900462
31.03.1999                     3.14131150                     0.00000000                     0.00000000                     0.42460127
30.04.1999                     3.13793566                     0.00000000                     0.00000000                     0.42122543
31.05.1999                     3.14072965                     0.00000000                     0.00000000                     0.42401942
30.06.1999                     3.14621009                     0.00000000                     0.00000000                     0.42949987
31.07.1999                     3.16946751                     0.00000000                     0.00000000                     0.45275729
31.08.1999                     3.18582752                     0.00000000                     0.00000000                     0.46911730
30.09.1999                     3.19363624                     0.00000000                     0.00000000                     0.47692602
31.10.1999                     3.19327814                     0.00000000                     0.00000000                     0.47656792
30.11.1999                     3.18189829                     0.00000000                     0.00000000                     0.46518807
31.12.1999                     3.16994882                     0.00000000                     0.00000000                     0.45323859
31.01.2000                     3.15403739                     0.00000000                     0.00000000                     0.43732717
29.02.2000                     3.13824619                     0.00000000                     0.00000000                     0.42153597
31.03.2000                     3.12379049                     0.00000000                     0.00000000                     0.40708026
30.04.2000                     3.13375015                     0.00000000                     0.00000000                     0.41703993
31.05.2000                     3.13147511                     0.00000000                     0.00000000                     0.41476489
30.06.2000                     3.12702431                     0.00000000                     0.00000000                     0.41031409
31.07.2000                     3.13852716                     0.00000000                     0.00000000                     0.42181693
31.08.2000                     3.13416947                     0.00000000                     0.00000000                     0.41745925
30.09.2000                     3.13779826                     0.00000000                     0.00000000                     0.42108804
31.10.2000                     3.13438074                     0.00000000                     0.00000000                     0.41767052
30.11.2000                     3.12581388                     0.00000000                     0.00000000                     0.40910366
31.12.2000                     3.11560701                     0.00000000                     0.00000000                     0.39889679
31.01.2001                     3.09979460                     0.00000000                     0.00000000                     0.38308438
28.02.2001                     3.08538977                     0.00000000                     0.00000000                     0.36867955
31.03.2001                     3.07236441                     0.00000000                     0.00000000                     0.35565419
30.04.2001                     3.06131315                     0.00000000                     0.00000000                     0.34460293
31.05.2001                     3.06358352                     0.00000000                     0.00000000                     0.34687330
30.06.2001                     3.09052544                     0.00000000                     0.00000000                     0.37381522
31.07.2001                     3.10234863                     0.00000000                     0.00000000                     0.38563841
31.08.2001                     3.11225843                     0.00000000                     0.00000000                     0.39554821
30.09.2001                     3.12403831                     0.00000000                     0.00000000                     0.40732809
31.10.2001                     3.11792621                     0.00000000                     0.00000000                     0.40121599
30.11.2001                     3.11288835                     0.00000000                     0.00000000                     0.39617812
31.12.2001                     3.09961809                     0.00000000                     0.00000000                     0.38290787
31.01.2002                     3.08364316                     0.00000000                     0.00000000                     0.36693294
28.02.2002                     3.07117908                     0.00000000                     0.00000000                     0.35446885
31.03.2002                     3.05852180                     0.00000000                     0.00000000                     0.34181157
30.04.2002                     3.05509422                     0.00000000                     0.00000000                     0.33838400
31.05.2002                     3.05322665                     0.00000000                     0.00000000                     0.33651643
30.06.2002                     3.06536704                     0.00000000                     0.00000000                     0.34865682
31.07.2002                     3.07906523                     0.00000000                     0.00000000                     0.36235500
31.08.2002                     3.08652998                     0.00000000                     0.00000000                     0.36981976
30.09.2002                     3.09576272                     0.00000000                     0.00000000                     0.37905250
31.10.2002                     3.09477863                     0.00000000                     0.00000000                     0.37806841
30.11.2002                     3.08739756                     0.00000000                     0.00000000                     0.37068734
31.12.2002                     3.07381662                     0.00000000                     0.00000000                     0.35710640
31.01.2003                     3.05823357                     0.00000000                     0.00000000                     0.34152334
28.02.2003                     3.04582669                     0.00000000                     0.00000000                     0.32911646
31.03.2003                     3.03314881                     0.00000000                     0.00000000                     0.31643859
30.04.2003                     3.02974909                     0.00000000                     0.00000000                     0.31303886
31.05.2003                     3.02804735                     0.00000000                     0.00000000                     0.31133713
30.06.2003                     3.04023843                     0.00000000                     0.00000000                     0.32352821
31.07.2003                     3.05399411                     0.00000000                     0.00000000                     0.33728388
31.08.2003                     3.06161003                     0.00000000                     0.00000000                     0.34489980
30.09.2003                     3.07055624                     0.00000000                     0.00000000                     0.35384602
31.10.2003                     3.06946976                     0.00000000                     0.00000000                     0.35275953
30.11.2003                     3.06203233                     0.00000000                     0.00000000                     0.34532210
31.12.2003                     3.04941021                     0.00000000                     0.00000000                     0.33269998
31.01.2004                     3.03852316                     0.00000000                     0.00000000                     0.32181294
29.02.2004                     3.02390028                     0.00000000                     0.00000000                     0.30719006
31.03.2004                     3.01052751                     0.00000000                     0.00000000                     0.29381729
30.04.2004                     3.00531049                     0.00000000                     0.00000000                     0.28860027
31.05.2004                     3.00848277                     0.00000000                     0.00000000                     0.29177255
30.06.2004                     3.02578954                     0.00000000                     0.00000000                     0.30907931
31.07.2004                     3.03157638                     0.00000000                     0.00000000                     0.31486615
31.08.2004                     3.04183152                     0.00000000                     0.00000000                     0.32512130
30.09.2004                     3.03872661                     0.00000000                     0.00000000                     0.32201639
31.10.2004                     3.03589260                     0.00000000                     0.00000000                     0.31918237
30.11.2004                     3.03262848                     0.00000000                     0.00000000                     0.31591825
31.12.2004                     3.02032229                     0.00000000                     0.00000000                     0.30361206
31.01.2005                     3.00548893                     0.00000000                     0.00000000                     0.28877871
28.02.2005                     2.99323367                     0.00000000                     0.00000000                     0.27652345
31.03.2005                     2.98346691                     0.00000000                     0.00000000                     0.26675669
30.04.2005                     2.98614067                     0.00000000                     0.00000000                     0.26943045
31.05.2005                     3.00672449                     0.00000000                     0.00000000                     0.29001426
30.06.2005                     3.01650804                     0.00000000                     0.00000000                     0.29979782
31.07.2005                     3.01778554                     0.00000000                     0.00000000                     0.30107532
31.08.2005                     3.02607511                     0.00000000                     0.00000000                     0.30936489
30.09.2005                     3.03565618                     0.00000000                     0.00000000                     0.31894595
31.10.2005                     3.03999972                     0.00000000                     0.00000000                     0.32328949
30.11.2005                     3.03668321                     0.00000000                     0.00000000                     0.31997299
31.12.2005                     3.02850014                     0.00000000                     0.00000000                     0.31178992
31.01.2006                     3.01956274                     0.00000000                     0.00000000                     0.30285252
28.02.2006                     3.00813896                     0.00000000                     0.00000000                     0.29142874
31.03.2006                     2.99459796                     0.00000000                     0.00000000                     0.27788774
30.04.2006                     2.99032801                     0.00000000                     0.00000000                     0.27361779
31.05.2006                     2.98642425                     0.00000000                     0.00000000                     0.26971403
30.06.2006                     2.98419567                     0.00000000                     0.00000000                     0.26748545
31.07.2006                     2.99232118                     0.00000000                     0.00000000                     0.27561095
31.08.2006                     3.01203189                     0.00000000                     0.00000000                     0.29532166
30.09.2006                     3.01368403                     0.00000000                     0.00000000                     0.29697381
31.10.2006                     3.00948344                     0.00000000                     0.00000000                     0.29277322
30.11.2006                     3.00051346                     0.00000000                     0.00000000                     0.28380324
31.12.2006                     2.98689201                     0.00000000                     0.00000000                     0.27018179
31.01.2007                     2.97297071                     0.00000000                     0.00000000                     0.25626048
28.02.2007                     2.95945339                     0.00000000                     0.00000000                     0.24274317
31.03.2007                     2.94586542                     0.00000000                     0.00000000                     0.22915519
30.04.2007                     2.94207831                     0.00000000                     0.00000000                     0.22536809
31.05.2007                     2.94461551                     0.00000000                     0.00000000                     0.22790528
30.06.2007                     2.94960063                     0.00000000                     0.00000000                     0.23289041
31.07.2007                     2.97182472                     0.00000000                     0.00000000                     0.25511450
31.08.2007                     2.98799257                     0.00000000                     0.00000000                     0.27128235
30.09.2007                     2.99583030                     0.00000000                     0.00000000                     0.27912008
31.10.2007                     2.99609181                     0.00000000                     0.00000000                     0.27938159
30.11.2007                     2.98562241                     0.00000000                     0.00000000                     0.26891218
31.12.2007                     2.97440758                     0.00000000                     0.00000000                     0.25769735
