date	time	ph	dissolved_oxygen	ammonium	nitrate_nitrite	phosphorus	tracer	sulfate	chlorid	calcium	magnesium	sodium	potassium	iron_II	iron_III	manganese_II	manganese_III	aluminium	inorganic_carbon
01.03.1997	00:00:00.0	5.6	8	0	0.11	0.04	640	59	322.39978	5	21	180	18	3	0.9	0.32	0	0	6.00555
01.01.2020	00:00:00.0	5.6	8	0	0.11	0.04	640	59	322.39978	5	21	180	18	3	0.9	0.32	0	0	6.00555
