date        time       precipitation_temperature
01.01.2001  00:00         15.5
02.01.2001  00:00         15.5
01.02.2001  12:00:00.0    15.5
02.02.2001  12:00:00.0    15.5
31.12.2020  00:00:00.0    15.5
31.12.2100  00:00:00.0    15.5