Columns	RW
1	100
2	200
3	300
4	400
5	500
6	600
7	700
8	800
9	900
Layers ZU
1 150
2 151
3 152
4 153
5 154
6 155
7 156
8 157
9 158
10 159
11 160
12 161
13 162
14 163
15 164
16 165
17 166
18 167
19 168
20 169
21 170
22 171
23 172
24 173
25 174
26 175
27 176
28 177
29 178
30 179
31 180
32 181
33 182
34 183
35 184
36 185
37 186
38 187
39 188
40 189
41 190
42 191
43 192
44 193
45 194
46 195
47 196
48 197
49 198
50 199
51 200